^C:\USERS\ZEBRA\GOOGLE-DRIVE\NEUMONT\C\PROJECTS2\C2\INCLASSCODING\INCLASSCODING\MAIN.CPP
/c /ZI /nologo /W4 /WX- /diagnostics:classic /Od /Oy- /D WIN32 /D _DEBUG /D _CONSOLE /D _UNICODE /D UNICODE /Gm /EHsc /RTC1 /MDd /GS /fp:precise /Zc:wchar_t /Zc:forScope /Zc:inline /Fo"DEBUG\\" /Fd"DEBUG\VC141.PDB" /Gd /TP /analyze- C:\USERS\ZEBRA\GOOGLE-DRIVE\NEUMONT\C\PROJECTS2\C2\INCLASSCODING\INCLASSCODING\MAIN.CPP
^C:\USERS\ZEBRA\GOOGLE-DRIVE\NEUMONT\C\PROJECTS2\C2\INCLASSCODING\INCLASSCODING\TOY.CPP
/c /ZI /nologo /W4 /WX- /diagnostics:classic /Od /Oy- /D WIN32 /D _DEBUG /D _CONSOLE /D _UNICODE /D UNICODE /Gm /EHsc /RTC1 /MDd /GS /fp:precise /Zc:wchar_t /Zc:forScope /Zc:inline /Fo"DEBUG\\" /Fd"DEBUG\VC141.PDB" /Gd /TP /analyze- C:\USERS\ZEBRA\GOOGLE-DRIVE\NEUMONT\C\PROJECTS2\C2\INCLASSCODING\INCLASSCODING\TOY.CPP
