^C:\USERS\ZEBRA\GOOGLE-DRIVE\NEUMONT\C\PROJECTS2\C2\INCLASSCODING\INCLASSCODING\DEBUG\MAIN.OBJ|C:\USERS\ZEBRA\GOOGLE-DRIVE\NEUMONT\C\PROJECTS2\C2\INCLASSCODING\INCLASSCODING\DEBUG\TOY.OBJ
C:\USERS\ZEBRA\GOOGLE-DRIVE\NEUMONT\C\PROJECTS2\C2\INCLASSCODING\DEBUG\TOY.ILK
C:\USERS\ZEBRA\GOOGLE-DRIVE\NEUMONT\C\PROJECTS2\C2\INCLASSCODING\DEBUG\TOY.EXE
C:\USERS\ZEBRA\GOOGLE-DRIVE\NEUMONT\C\PROJECTS2\C2\INCLASSCODING\DEBUG\TOY.PDB
