^C:\Users\Zebra\Google-Drive\neumont\C\projects2\C2Work\Lab01 2D Calculator\Engine\Engine.vcxproj
C:\Users\Zebra\Google-Drive\neumont\C\projects2\C2Work\Lab01 2D Calculator\x64\Debug\Engine.lib
C:\Users\Zebra\Google-Drive\neumont\C\projects2\C2Work\Lab01 2D Calculator\x64\Debug\Engine.exp
