^C:\USERS\ZEBRA\GOOGLE-DRIVE\NEUMONT\C\PROJECTS2\C2WORK\LAB01 2D CALCULATOR\ENGINE\DEBUG\ENGINE.OBJ|C:\USERS\ZEBRA\GOOGLE-DRIVE\NEUMONT\C\PROJECTS2\C2WORK\LAB01 2D CALCULATOR\ENGINE\DEBUG\VEC2.OBJ
C:\USERS\ZEBRA\GOOGLE-DRIVE\NEUMONT\C\PROJECTS2\C2WORK\LAB01 2D CALCULATOR\DEBUG\ENGINE.ILK
C:\USERS\ZEBRA\GOOGLE-DRIVE\NEUMONT\C\PROJECTS2\C2WORK\LAB01 2D CALCULATOR\DEBUG\ENGINE.DLL
C:\USERS\ZEBRA\GOOGLE-DRIVE\NEUMONT\C\PROJECTS2\C2WORK\LAB01 2D CALCULATOR\DEBUG\ENGINE.PDB
