^C:\USERS\ZEBRA\GOOGLE-DRIVE\NEUMONT\C\PROJECTS2\C2 WORK\LAB01 2D CALCULATOR\ENGINE\DEBUG\ENGINE.OBJ|C:\USERS\ZEBRA\GOOGLE-DRIVE\NEUMONT\C\PROJECTS2\C2 WORK\LAB01 2D CALCULATOR\ENGINE\DEBUG\VEC2.OBJ
/OUT:"C:\USERS\ZEBRA\GOOGLE-DRIVE\NEUMONT\C\PROJECTS2\C2 WORK\LAB01 2D CALCULATOR\DEBUG\ENGINE.DLL" /INCREMENTAL /NOLOGO KERNEL32.LIB USER32.LIB GDI32.LIB WINSPOOL.LIB COMDLG32.LIB ADVAPI32.LIB SHELL32.LIB OLE32.LIB OLEAUT32.LIB UUID.LIB ODBC32.LIB ODBCCP32.LIB /MANIFEST /MANIFESTUAC:"level='asInvoker' uiAccess='false'" /manifest:embed /DEBUG:FASTLINK /PDB:"C:\USERS\ZEBRA\GOOGLE-DRIVE\NEUMONT\C\PROJECTS2\C2 WORK\LAB01 2D CALCULATOR\DEBUG\ENGINE.PDB" /SUBSYSTEM:WINDOWS /TLBID:1 /DYNAMICBASE /NXCOMPAT /IMPLIB:"C:\USERS\ZEBRA\GOOGLE-DRIVE\NEUMONT\C\PROJECTS2\C2 WORK\LAB01 2D CALCULATOR\DEBUG\ENGINE.LIB" /MACHINE:X86 /DLL DEBUG\ENGINE.OBJDEBUG\VEC2.OBJ
^C:\USERS\ZEBRA\GOOGLE-DRIVE\NEUMONT\C\PROJECTS2\C2WORK\LAB01 2D CALCULATOR\ENGINE\DEBUG\ENGINE.OBJ|C:\USERS\ZEBRA\GOOGLE-DRIVE\NEUMONT\C\PROJECTS2\C2WORK\LAB01 2D CALCULATOR\ENGINE\DEBUG\VEC2.OBJ
/OUT:"C:\USERS\ZEBRA\GOOGLE-DRIVE\NEUMONT\C\PROJECTS2\C2WORK\LAB01 2D CALCULATOR\DEBUG\ENGINE.DLL" /INCREMENTAL /NOLOGO KERNEL32.LIB USER32.LIB GDI32.LIB WINSPOOL.LIB COMDLG32.LIB ADVAPI32.LIB SHELL32.LIB OLE32.LIB OLEAUT32.LIB UUID.LIB ODBC32.LIB ODBCCP32.LIB /MANIFEST /MANIFESTUAC:"level='asInvoker' uiAccess='false'" /manifest:embed /DEBUG:FASTLINK /PDB:"C:\USERS\ZEBRA\GOOGLE-DRIVE\NEUMONT\C\PROJECTS2\C2WORK\LAB01 2D CALCULATOR\DEBUG\ENGINE.PDB" /SUBSYSTEM:WINDOWS /TLBID:1 /DYNAMICBASE /NXCOMPAT /IMPLIB:"C:\USERS\ZEBRA\GOOGLE-DRIVE\NEUMONT\C\PROJECTS2\C2WORK\LAB01 2D CALCULATOR\DEBUG\ENGINE.LIB" /MACHINE:X86 /DLL DEBUG\ENGINE.OBJDEBUG\VEC2.OBJ
