^C:\USERS\ZEBRA\GOOGLE-DRIVE\NEUMONT\C\PROJECTS2\C2\INCLASSCODING\TOYTESTER\STDAFX.CPP
/c /I"C:\USERS\ZEBRA\GOOGLE-DRIVE\NEUMONT\C\PROJECTS2\C2\INCLASSCODING\/TOY/TOY" /ZI /nologo /W4 /WX- /diagnostics:classic /Od /Oy- /D WIN32 /D _DEBUG /D _WINDLL /D _UNICODE /D UNICODE /Gm /EHsc /RTC1 /MDd /GS /fp:precise /Zc:wchar_t /Zc:forScope /Zc:inline /Yc"stdafx.h" /Fp"DEBUG\TOYTESTER.PCH" /Fo"DEBUG\\" /Fd"DEBUG\VC141.PDB" /Gd /TP /analyze- /FC C:\USERS\ZEBRA\GOOGLE-DRIVE\NEUMONT\C\PROJECTS2\C2\INCLASSCODING\TOYTESTER\STDAFX.CPP
^C:\USERS\ZEBRA\GOOGLE-DRIVE\NEUMONT\C\PROJECTS2\C2\INCLASSCODING\TOYTESTER\UNITTEST1.CPP
/c /I"C:\USERS\ZEBRA\GOOGLE-DRIVE\NEUMONT\C\PROJECTS2\C2\INCLASSCODING\/TOY/TOY" /ZI /nologo /W4 /WX- /diagnostics:classic /Od /Oy- /D WIN32 /D _DEBUG /D _WINDLL /D _UNICODE /D UNICODE /Gm /EHsc /RTC1 /MDd /GS /fp:precise /Zc:wchar_t /Zc:forScope /Zc:inline /Yu"stdafx.h" /Fp"DEBUG\TOYTESTER.PCH" /Fo"DEBUG\\" /Fd"DEBUG\VC141.PDB" /Gd /TP /analyze- /FC C:\USERS\ZEBRA\GOOGLE-DRIVE\NEUMONT\C\PROJECTS2\C2\INCLASSCODING\TOYTESTER\UNITTEST1.CPP
^C:\USERS\ZEBRA\GOOGLE-DRIVE\NEUMONT\C\PROJECTS2\C2\INCLASSCODING\INCLASSCODING\TOY.CPP
/c /I"C:\USERS\ZEBRA\GOOGLE-DRIVE\NEUMONT\C\PROJECTS2\C2\INCLASSCODING\/TOY/TOY" /ZI /nologo /W4 /WX- /diagnostics:classic /Od /Oy- /D WIN32 /D _DEBUG /D _WINDLL /D _UNICODE /D UNICODE /Gm /EHsc /RTC1 /MDd /GS /fp:precise /Zc:wchar_t /Zc:forScope /Zc:inline /Yu"stdafx.h" /Fp"DEBUG\TOYTESTER.PCH" /Fo"DEBUG\\" /Fd"DEBUG\VC141.PDB" /Gd /TP /analyze- /FC C:\USERS\ZEBRA\GOOGLE-DRIVE\NEUMONT\C\PROJECTS2\C2\INCLASSCODING\INCLASSCODING\TOY.CPP
